{
	"id": "e119e908-dbd2-4b5e-89e0-62dea4c93bb3",
	"name": "Production",
	"values": [
		{
			"key": "baseUrl",
			"value": "http://production.eba-bwwyprr5.eu-west-3.elasticbeanstalk.com/",
			"enabled": true
		}
	],
	"_postman_variable_scope": "environment",
	"_postman_exported_at": "2024-02-09T22:42:33.268Z",
	"_postman_exported_using": "Postman/10.22.13"
}